# 
# Generated by Sweet Home 3D - dom oct 25 08:50:53 BOT 2015
# http://www.sweethome3d.com/
# 
mtllib galeriaEscenario.mtl
g ground_1
usemtl ground_1
v -1.6447754 0.0 389.67096
v -1.6447754 0.0 902.17096
v 3001.9507 0.0 902.17096
v 3001.9507 0.0 894.8184
v 1.950943 0.0 894.8182
v 1.950943 0.0 394.8184
v 3001.9507 0.0 394.8184
v 3001.9507 0.0 389.67096
vn 0.0 1.0 0.0
vn 0.0 0.0 0.0
f 7//1 8//1 1//1
f 6//1 7//1 1//1
f 6//1 1//1 2//1
f 5//1 6//1 2//1
f 5//1 2//1 3//1
f 5//1 3//1 4//1
g wall_1_2
usemtl wall_1_2
v 2.1052094 0.0 389.67096
v 2.1052094 0.0 393.42096
v 2997.1052 0.0 393.42096
v 3000.8552 0.0 389.67096
vn 0.0 -1.0 0.0
f 12//3 11//3 10//3
f 12//3 10//3 9//3
g wall_1_3
usemtl wall_1_2
v 2.1052094 0.0 397.17096
v 2993.3552 0.0 397.17096
f 11//3 14//3 13//3
f 11//3 13//3 10//3
g wall_1_4
usemtl wall_1_2
v 2.1052094 250.0 393.42096
v 2.1052094 250.0 389.67096
v 3000.8552 250.0 389.67096
v 2997.1052 250.0 393.42096
vt 0.0 0.0 0
vt 0.012261514 0.0 0
vt 0.012261514 1.0 0
vt 0.0 1.0 0
vt 0.0173404 0.0 0
vt 0.0173404 1.0 0
vt -9.805124 0.0 0
vt -9.805124 1.0 0
vn -1.0 0.0 0.0
vn 0.70710677 0.0 0.70710677
vn 0.0 0.0 -1.0
f 9/1/4 10/2/4 15/3/4 16/4/4
f 11/1/5 12/5/5 17/6/5 18/4/5
f 12/7/6 9/1/6 16/4/6 17/8/6
g wall_1_5
usemtl wall_1_2
v 2.1052094 250.0 397.17096
v 2993.3552 250.0 397.17096
vt 9.780601 0.0 0
vt 9.780601 1.0 0
vn 0.0 0.0 1.0
f 10/1/4 13/2/4 19/3/4 15/4/4
f 13/1/7 14/9/7 20/10/7 19/4/7
f 14/1/5 11/5/5 18/6/5 20/4/5
g wall_1_6
usemtl wall_1_2
f 16//1 15//1 18//1
f 16//1 18//1 17//1
g wall_1_7
usemtl wall_1_2
f 15//1 19//1 20//1
f 15//1 20//1 18//1
g wall_2_8
usemtl wall_1_2
v 2997.1052 0.0 898.42096
v 3000.8552 0.0 902.17096
f 22//3 21//3 11//3
f 22//3 11//3 12//3
g wall_2_9
usemtl wall_1_2
v 2993.3552 0.0 894.67096
f 21//3 23//3 14//3
f 21//3 14//3 11//3
g wall_2_10
usemtl wall_1_2
v 3000.8552 250.0 902.17096
v 2997.1052 250.0 898.42096
vt -1.6757402 0.0 0
vt -1.6757402 1.0 0
vn -0.70710677 0.0 -0.70710677
vn -0.70710677 0.0 0.70710677
vn 1.0 0.0 0.0
f 12/1/8 11/5/8 18/6/8 17/4/8
f 21/1/9 22/5/9 24/6/9 25/4/9
f 22/11/10 12/1/10 17/4/10 24/12/10
g wall_2_11
usemtl wall_1_2
v 2993.3552 250.0 894.67096
vt 1.6266942 0.0 0
vt 1.6266942 1.0 0
f 11/1/8 14/5/8 20/6/8 18/4/8
f 14/1/4 23/13/4 26/14/4 20/4/4
f 23/1/9 21/5/9 25/6/9 26/4/9
g wall_2_12
usemtl wall_1_2
f 17//1 18//1 25//1
f 17//1 25//1 24//1
g wall_2_13
usemtl wall_1_2
f 18//1 20//1 26//1
f 18//1 26//1 25//1
g wall_3_14
usemtl wall_1_2
v 2.1052246 0.0 898.42096
f 21//3 22//3 2//3
f 21//3 2//3 27//3
g wall_3_15
usemtl wall_1_2
v 5.8552246 0.0 894.67096
f 23//3 21//3 27//3
f 23//3 27//3 28//3
g wall_3_16
usemtl wall_1_2
v -1.6447754 250.0 902.17096
v 2.1052246 250.0 898.42096
vt -9.817386 0.0 0
vt -9.817386 1.0 0
vn 0.70710677 0.0 -0.70710677
f 27/1/8 2/5/8 29/6/8 30/4/8
f 2/15/7 22/1/7 24/4/7 29/16/7
f 22/1/11 21/5/11 25/6/11 24/4/11
g wall_3_17
usemtl wall_1_2
v 5.8552246 250.0 894.67096
vt 9.768339 0.0 0
vt 9.768339 1.0 0
f 28/1/8 27/5/8 30/6/8 31/4/8
f 21/1/11 23/5/11 26/6/11 25/4/11
f 23/1/6 28/17/6 31/18/6 26/4/6
g wall_3_18
usemtl wall_1_2
f 30//1 29//1 24//1
f 30//1 24//1 25//1
g wall_3_19
usemtl wall_1_2
f 31//1 30//1 25//1
f 31//1 25//1 26//1
g wall_4_20
usemtl wall_1_2
v 2.1052246 0.0 393.42096
f 32//3 27//3 2//3
f 32//3 2//3 1//3
g wall_4_21
usemtl wall_1_2
v 5.8552246 0.0 397.17096
f 33//3 28//3 27//3
f 33//3 27//3 32//3
g wall_4_22
usemtl wall_1_2
v -1.6447754 250.0 389.67096
v 2.1052246 250.0 393.42096
f 1/11/4 2/1/4 29/4/4 34/12/4
f 2/1/5 27/5/5 30/6/5 29/4/5
f 32/1/11 1/5/11 34/6/11 35/4/11
g wall_4_23
usemtl wall_1_2
v 5.8552246 250.0 397.17096
f 27/1/5 28/5/5 31/6/5 30/4/5
f 28/1/10 33/13/10 36/14/10 31/4/10
f 33/1/11 32/5/11 35/6/11 36/4/11
g wall_4_24
usemtl wall_1_2
f 34//1 29//1 30//1
f 34//1 30//1 35//1
g wall_4_25
usemtl wall_1_2
f 35//1 30//1 31//1
f 35//1 31//1 36//1
g wall_5_26
usemtl wall_1_2
v 12.105225 0.0 393.42096
v 12.105225 0.0 389.67096
f 38//3 37//3 32//3
f 38//3 32//3 1//3
g wall_5_27
usemtl wall_1_2
v 12.105225 0.0 397.17096
f 37//3 39//3 33//3
f 37//3 33//3 32//3
g wall_5_28
usemtl wall_1_2
v 12.105225 250.0 389.67096
v 12.105225 250.0 393.42096
vt -0.044958886 0.0 0
vt -0.044958886 1.0 0
f 1/1/9 32/5/9 35/6/9 34/4/9
f 37/1/10 38/2/10 40/3/10 41/4/10
f 38/19/6 1/1/6 34/4/6 40/20/6
g wall_5_29
usemtl wall_1_2
v 12.105225 250.0 397.17096
vt 0.020435857 0.0 0
vt 0.020435857 1.0 0
f 32/1/9 33/5/9 36/6/9 35/4/9
f 33/1/7 39/21/7 42/22/7 36/4/7
f 39/1/10 37/2/10 41/3/10 42/4/10
g wall_5_30
usemtl wall_1_2
f 34//1 35//1 41//1
f 34//1 41//1 40//1
g wall_5_31
usemtl wall_1_2
f 35//1 36//1 42//1
f 35//1 42//1 41//1
g room_6_32
usemtl room_6_32
vt 0.014632071 -8.948182 0
vt 22.514627 -8.948184 0
vt 22.514627 -3.948184 0
vt 0.014632071 -3.948184 0
f 5/23/1 4/24/1 7/25/1
f 5/23/1 7/25/1 6/26/1
g room_6_33
usemtl room_6_33
v 1.950943 250.0 394.8184
v 3001.9507 250.0 394.8184
v 3001.9507 250.0 894.8184
v 1.950943 250.0 894.8182
vt 0.01950943 3.948184 0
vt 30.019506 3.948184 0
vt 30.019506 8.948184 0
vt 0.01950943 8.948182 0
f 43/27/3 44/28/3 45/29/3
f 43/27/3 45/29/3 46/30/3
